{
    "name": "YoungerBrotherPlayerInput",
    "maps": [
        {
            "name": "YoungerBrother",
            "id": "f62a4b92-ef5e-4175-8f4c-c9075429d32c",
            "actions": [
                {
                    "name": "Move",
                    "type": "Value",
                    "id": "6bc1aaf4-b110-4ff7-891e-5b9fe6f32c4d",
                    "expectedControlType": "Vector2",
                    "processors": "",
                    "interactions": "",
                    "initialStateCheck": true
                },
                {
                    "name": "Look",
                    "type": "Value",
                    "id": "2690c379-f54d-45be-a724-414123833eb4",
                    "expectedControlType": "Vector2",
                    "processors": "",
                    "interactions": "",
                    "initialStateCheck": true
                },
                {
                    "name": "Jump",
                    "type": "Button",
                    "id": "8c4abdf8-4099-493a-aa1a-129acec7c3df",
                    "expectedControlType": "Button",
                    "processors": "",
                    "interactions": "Press(behavior=2)",
                    "initialStateCheck": true
                },
                {
                    "name": "SlowMove",
                    "type": "PassThrough",
                    "id": "34e06ecc-a6f3-4244-a660-6f42fd5a3896",
                    "expectedControlType": "",
                    "processors": "",
                    "interactions": "",
                    "initialStateCheck": false
                },
                {
                    "name": "ChangeCharacter",
                    "type": "Button",
                    "id": "869c5812-e54c-4e0a-855f-57243848c252",
                    "expectedControlType": "Button",
                    "processors": "",
                    "interactions": "Press(behavior=2)",
                    "initialStateCheck": true
                },
                {
                    "name": "DieDebugTest",
                    "type": "Button",
                    "id": "909ce076-863a-4c55-9d58-c3accd3b6ad0",
                    "expectedControlType": "Button",
                    "processors": "",
                    "interactions": "",
                    "initialStateCheck": false
                },
                {
                    "name": "GetHitDebugTest",
                    "type": "Button",
                    "id": "87928339-fc89-42da-9d77-593381e3e5a8",
                    "expectedControlType": "Button",
                    "processors": "",
                    "interactions": "",
                    "initialStateCheck": false
                },
                {
                    "name": "HideUp",
                    "type": "Button",
                    "id": "b75e46b3-f696-4afd-a547-b159bfafa96a",
                    "expectedControlType": "Button",
                    "processors": "",
                    "interactions": "",
                    "initialStateCheck": false
                },
                {
                    "name": "HideDown",
                    "type": "Button",
                    "id": "f9af4f61-c540-4fdf-8709-25fcfe5204d8",
                    "expectedControlType": "Button",
                    "processors": "",
                    "interactions": "",
                    "initialStateCheck": false
                },
                {
                    "name": "Climb",
                    "type": "Button",
                    "id": "2b83fe15-8709-4290-a216-094688e24045",
                    "expectedControlType": "Button",
                    "processors": "",
                    "interactions": "Press",
                    "initialStateCheck": true
                },
                {
                    "name": "ChangeSceneArea",
                    "type": "Button",
                    "id": "c9110ea7-2857-418b-a577-5cbc28187eca",
                    "expectedControlType": "Button",
                    "processors": "",
                    "interactions": "Press",
                    "initialStateCheck": true
                },
                {
                    "name": "UseItem",
                    "type": "Value",
                    "id": "ea49d34b-4cdf-4e4e-b6ea-9b5cb1a80c1f",
                    "expectedControlType": "",
                    "processors": "",
                    "interactions": "Press",
                    "initialStateCheck": true
                },
                {
                    "name": "Crouch",
                    "type": "Button",
                    "id": "4f7c92af-684f-4c2b-8a33-84a7b884dd30",
                    "expectedControlType": "Button",
                    "processors": "",
                    "interactions": "Press",
                    "initialStateCheck": true
                },
                {
                    "name": "SoloAction",
                    "type": "Button",
                    "id": "f42b7a05-6de8-4f9e-83bb-ee587dd2990b",
                    "expectedControlType": "Button",
                    "processors": "",
                    "interactions": "Press",
                    "initialStateCheck": true
                },
                {
                    "name": "OpenDoor",
                    "type": "Button",
                    "id": "8d6f9dcc-1854-4ab1-b30d-dc46f2a57a39",
                    "expectedControlType": "Button",
                    "processors": "",
                    "interactions": "Press",
                    "initialStateCheck": true
                },
                {
                    "name": "Pause",
                    "type": "Button",
                    "id": "243fdf5d-ac7c-4bfe-9582-21b4e275a09d",
                    "expectedControlType": "Button",
                    "processors": "",
                    "interactions": "Press",
                    "initialStateCheck": true
                }
            ],
            "bindings": [
                {
                    "name": "Left / Right / Up / Down",
                    "id": "b7594ddb-26c9-4ba2-bd5a-901468929edc",
                    "path": "2DVector(mode=1)",
                    "interactions": "",
                    "processors": "",
                    "groups": "",
                    "action": "Move",
                    "isComposite": true,
                    "isPartOfComposite": false
                },
                {
                    "name": "left",
                    "id": "28abadba-06ff-4d37-bb70-af2f1e35a3b9",
                    "path": "<Keyboard>/leftArrow",
                    "interactions": "",
                    "processors": "",
                    "groups": "KeyboardMouse",
                    "action": "Move",
                    "isComposite": false,
                    "isPartOfComposite": true
                },
                {
                    "name": "right",
                    "id": "45f115b6-9b4f-4ba8-b500-b94c93bf7d7e",
                    "path": "<Keyboard>/rightArrow",
                    "interactions": "",
                    "processors": "",
                    "groups": "KeyboardMouse",
                    "action": "Move",
                    "isComposite": false,
                    "isPartOfComposite": true
                },
                {
                    "name": "up",
                    "id": "d6c2cd43-c69d-434c-976a-5ceaf833cb44",
                    "path": "<Keyboard>/upArrow",
                    "interactions": "",
                    "processors": "",
                    "groups": "KeyboardMouse",
                    "action": "Move",
                    "isComposite": false,
                    "isPartOfComposite": true
                },
                {
                    "name": "down",
                    "id": "71eccdae-4c3a-4dd7-bac9-67e9eff62509",
                    "path": "<Keyboard>/downArrow",
                    "interactions": "",
                    "processors": "",
                    "groups": "KeyboardMouse",
                    "action": "Move",
                    "isComposite": false,
                    "isPartOfComposite": true
                },
                {
                    "name": "",
                    "id": "e2f9aa65-db06-4c5b-a2e9-41bc8acb9517",
                    "path": "<Gamepad>/leftStick",
                    "interactions": "",
                    "processors": "StickDeadzone",
                    "groups": "Gamepad",
                    "action": "Move",
                    "isComposite": false,
                    "isPartOfComposite": false
                },
                {
                    "name": "",
                    "id": "ed66cbff-2900-4a62-8896-696503cfcd31",
                    "path": "<Pointer>/delta",
                    "interactions": "",
                    "processors": "InvertVector2(invertX=false),ScaleVector2(x=0.05,y=0.05)",
                    "groups": "KeyboardMouse",
                    "action": "Look",
                    "isComposite": false,
                    "isPartOfComposite": false
                },
                {
                    "name": "",
                    "id": "d1d171b6-19d8-47a6-ba3a-71b6a8e7b3c0",
                    "path": "<Gamepad>/rightStick",
                    "interactions": "",
                    "processors": "InvertVector2(invertX=false),StickDeadzone,ScaleVector2(x=300,y=300)",
                    "groups": "Gamepad",
                    "action": "Look",
                    "isComposite": false,
                    "isPartOfComposite": false
                },
                {
                    "name": "",
                    "id": "1bd55a0b-761e-4ae4-89ae-8ec127e08a29",
                    "path": "<Keyboard>/space",
                    "interactions": "",
                    "processors": "",
                    "groups": "KeyboardMouse",
                    "action": "Jump",
                    "isComposite": false,
                    "isPartOfComposite": false
                },
                {
                    "name": "",
                    "id": "9f973413-5e27-4239-acee-38c4a63feeba",
                    "path": "<Gamepad>/buttonSouth",
                    "interactions": "",
                    "processors": "",
                    "groups": "Gamepad",
                    "action": "Jump",
                    "isComposite": false,
                    "isPartOfComposite": false
                },
                {
                    "name": "",
                    "id": "61b9abd1-262a-49f7-9703-949bf44830a9",
                    "path": "<Keyboard>/z",
                    "interactions": "",
                    "processors": "",
                    "groups": "KeyboardMouse",
                    "action": "SlowMove",
                    "isComposite": false,
                    "isPartOfComposite": false
                },
                {
                    "name": "",
                    "id": "a335e6e6-30e5-4e1b-bd33-83d187897c7c",
                    "path": "<Gamepad>/rightTrigger",
                    "interactions": "",
                    "processors": "",
                    "groups": "Gamepad",
                    "action": "SlowMove",
                    "isComposite": false,
                    "isPartOfComposite": false
                },
                {
                    "name": "",
                    "id": "d3fad87a-87e4-4af8-946e-0b8c323778a4",
                    "path": "<Keyboard>/v",
                    "interactions": "",
                    "processors": "",
                    "groups": "KeyboardMouse",
                    "action": "ChangeCharacter",
                    "isComposite": false,
                    "isPartOfComposite": false
                },
                {
                    "name": "",
                    "id": "560a6a2b-50b6-4f61-aa59-030975ad6311",
                    "path": "<Keyboard>/m",
                    "interactions": "",
                    "processors": "",
                    "groups": "KeyboardMouse",
                    "action": "DieDebugTest",
                    "isComposite": false,
                    "isPartOfComposite": false
                },
                {
                    "name": "",
                    "id": "9f0b94c8-4617-4484-b987-0aa1093c37eb",
                    "path": "<Keyboard>/n",
                    "interactions": "",
                    "processors": "",
                    "groups": "KeyboardMouse",
                    "action": "GetHitDebugTest",
                    "isComposite": false,
                    "isPartOfComposite": false
                },
                {
                    "name": "",
                    "id": "99adb052-3d41-4aa0-a796-c8bfe977a285",
                    "path": "<Keyboard>/w",
                    "interactions": "",
                    "processors": "",
                    "groups": "KeyboardMouse",
                    "action": "HideUp",
                    "isComposite": false,
                    "isPartOfComposite": false
                },
                {
                    "name": "",
                    "id": "8ed668a6-d4de-4efc-ab4d-0d71c218923f",
                    "path": "<Keyboard>/e",
                    "interactions": "",
                    "processors": "",
                    "groups": "KeyboardMouse",
                    "action": "Climb",
                    "isComposite": false,
                    "isPartOfComposite": false
                },
                {
                    "name": "",
                    "id": "f6575c36-2256-4042-a9e2-ba5b8532b557",
                    "path": "<Keyboard>/s",
                    "interactions": "",
                    "processors": "",
                    "groups": "KeyboardMouse",
                    "action": "HideDown",
                    "isComposite": false,
                    "isPartOfComposite": false
                },
                {
                    "name": "",
                    "id": "942c6bdf-b52e-4c74-b81b-19e551164d54",
                    "path": "<Keyboard>/q",
                    "interactions": "",
                    "processors": "",
                    "groups": "KeyboardMouse",
                    "action": "UseItem",
                    "isComposite": false,
                    "isPartOfComposite": false
                },
                {
                    "name": "",
                    "id": "d7017cc8-e6ac-497c-9eb6-cea7e5fb49b6",
                    "path": "<Keyboard>/leftCtrl",
                    "interactions": "",
                    "processors": "",
                    "groups": "KeyboardMouse",
                    "action": "Crouch",
                    "isComposite": false,
                    "isPartOfComposite": false
                },
                {
                    "name": "",
                    "id": "b9cadef3-fd62-4055-971e-2c924af72a46",
                    "path": "<Keyboard>/h",
                    "interactions": "",
                    "processors": "",
                    "groups": "KeyboardMouse",
                    "action": "SoloAction",
                    "isComposite": false,
                    "isPartOfComposite": false
                },
                {
                    "name": "",
                    "id": "812e493b-89f0-400a-832b-9dfdeee2761b",
                    "path": "<Keyboard>/e",
                    "interactions": "",
                    "processors": "",
                    "groups": "KeyboardMouse",
                    "action": "ChangeSceneArea",
                    "isComposite": false,
                    "isPartOfComposite": false
                },
                {
                    "name": "",
                    "id": "34a206c9-74eb-436e-9424-f96868d42734",
                    "path": "<Keyboard>/e",
                    "interactions": "",
                    "processors": "",
                    "groups": "KeyboardMouse",
                    "action": "OpenDoor",
                    "isComposite": false,
                    "isPartOfComposite": false
                },
                {
                    "name": "",
                    "id": "95f18446-da6b-4cf2-bf01-9ad26e58bb4c",
                    "path": "<Keyboard>/escape",
                    "interactions": "",
                    "processors": "",
                    "groups": "KeyboardMouse",
                    "action": "Pause",
                    "isComposite": false,
                    "isPartOfComposite": false
                }
            ]
        }
    ],
    "controlSchemes": [
        {
            "name": "KeyboardMouse",
            "bindingGroup": "KeyboardMouse",
            "devices": [
                {
                    "devicePath": "<Keyboard>",
                    "isOptional": false,
                    "isOR": false
                },
                {
                    "devicePath": "<Mouse>",
                    "isOptional": false,
                    "isOR": false
                }
            ]
        },
        {
            "name": "Gamepad",
            "bindingGroup": "Gamepad",
            "devices": [
                {
                    "devicePath": "<Gamepad>",
                    "isOptional": true,
                    "isOR": false
                },
                {
                    "devicePath": "<XInputController>",
                    "isOptional": true,
                    "isOR": false
                },
                {
                    "devicePath": "<DualShockGamepad>",
                    "isOptional": true,
                    "isOR": false
                }
            ]
        },
        {
            "name": "Xbox Controller",
            "bindingGroup": "Xbox Controller",
            "devices": []
        },
        {
            "name": "PS4 Controller",
            "bindingGroup": "PS4 Controller",
            "devices": []
        }
    ]
}