%YAML 1.1
%TAG !u! tag:unity3d.com,2011:
--- !u!114 &11400000
MonoBehaviour:
  m_ObjectHideFlags: 0
  m_CorrespondingSourceObject: {fileID: 0}
  m_PrefabInstance: {fileID: 0}
  m_PrefabAsset: {fileID: 0}
  m_GameObject: {fileID: 0}
  m_Enabled: 1
  m_EditorHideFlags: 0
  m_Script: {fileID: 11500000, guid: 4b2363d5b162fe349a5b7164b7de7bb9, type: 3}
  m_Name: HintsFromAnka5
  m_EditorClassIdentifier: 
  hintContent:
  - "T\u30AD\u30FC\u3067\u300C\u30B8\u30F3\u300D\u3092\u5DDD\u306B\u843D\u3068\u3057\u3066\u3084\u308D\u3046\u3002 "
