%YAML 1.1
%TAG !u! tag:unity3d.com,2011:
--- !u!114 &11400000
MonoBehaviour:
  m_ObjectHideFlags: 0
  m_CorrespondingSourceObject: {fileID: 0}
  m_PrefabInstance: {fileID: 0}
  m_PrefabAsset: {fileID: 0}
  m_GameObject: {fileID: 0}
  m_Enabled: 1
  m_EditorHideFlags: 0
  m_Script: {fileID: 11500000, guid: 4b2363d5b162fe349a5b7164b7de7bb9, type: 3}
  m_Name: HintsFromAnka4
  m_EditorClassIdentifier: 
  hintContent:
  - "\u4ECA\u5EA6\u306F 2 \u4EBA\u304B\uFF01"
  - "\u305D\u306E\u6728\u306B\u96A0\u308C\u308B\u304C\u3044\u3044\u3002\u3002 "
  - "\u3057\u304B\u3057\u3001\u305D\u3046\u3059\u308B\u306B\u306F\u6575\u306E\u6CE8\u610F\u3092\u6255\u308F\u306A\u3044\u3068\u3044\u304B\u3093\u3002\u3002"
  - "\u3044\u3044\u304B\u3001\u30B8\u30F3\u306E\u8996\u754C\u7BC4\u56F2\u304C\u898B\u3048\u308B\u3058\u3083\u308D\u3046\u3002\u3002"
  - "\u3053\u3063\u3061\u306B\u898B\u3066\u308B\u6642\u306F\u305D\u3053\u306B\u7D76\u5BFE\u306B\u8DB3\u8E0F\u3080\u306A\uFF01|\u898B\u3064\u304B\u3063\u305F\u3089\u3001\u5373\u6B7B\u3060\u305E\uFF01"
  - "\u3042\u3084\u3064\u3089\u306E\u52D5\u304D\u3092\u3088\u304F\u8AAD\u3081\u3002\u3002 "
  - "\u8996\u754C\u7BC4\u56F2\u3067\u306F\u9759\u304B\u306B\u6B69\u3044\u305F\u3089\u5927\u4E08\u592B\u3058\u3083\u308D\u3046\u3002
    \u3002"
