%YAML 1.1
%TAG !u! tag:unity3d.com,2011:
--- !u!114 &11400000
MonoBehaviour:
  m_ObjectHideFlags: 0
  m_CorrespondingSourceObject: {fileID: 0}
  m_PrefabInstance: {fileID: 0}
  m_PrefabAsset: {fileID: 0}
  m_GameObject: {fileID: 0}
  m_Enabled: 1
  m_EditorHideFlags: 0
  m_Script: {fileID: 11500000, guid: 4b2363d5b162fe349a5b7164b7de7bb9, type: 3}
  m_Name: HintsFromAnka12
  m_EditorClassIdentifier: 
  hintContent:
  - "\u3053\u3061\u3089\u306F\u5DE6Ctrl\u30AD\u30FC\u3067\u3057\u3083\u304C\u3093\u3067\u6B69\u304F\u306E\u3058\u3083\u3002\u3002|\u6575\u306E\u8996\u754C\u306B\u6C17\u3092\u4ED8\u3051\u308D\u3002\u3002"
