%YAML 1.1
%TAG !u! tag:unity3d.com,2011:
--- !u!114 &11400000
MonoBehaviour:
  m_ObjectHideFlags: 0
  m_CorrespondingSourceObject: {fileID: 0}
  m_PrefabInstance: {fileID: 0}
  m_PrefabAsset: {fileID: 0}
  m_GameObject: {fileID: 0}
  m_Enabled: 1
  m_EditorHideFlags: 0
  m_Script: {fileID: 11500000, guid: 4b2363d5b162fe349a5b7164b7de7bb9, type: 3}
  m_Name: HintsFromAnka14_2
  m_EditorClassIdentifier: 
  hintContent:
  - "\u30B7\u30E3\u30F3\u30C7\u30EA\u30A2\u304C\u843D\u3061\u305F\uFF01|\u4E0B\u3092\u78BA\u8A8D\u3059\u308B\u304C\u826F\u3044\u3002\u3002"
