%YAML 1.1
%TAG !u! tag:unity3d.com,2011:
--- !u!114 &11400000
MonoBehaviour:
  m_ObjectHideFlags: 0
  m_CorrespondingSourceObject: {fileID: 0}
  m_PrefabInstance: {fileID: 0}
  m_PrefabAsset: {fileID: 0}
  m_GameObject: {fileID: 0}
  m_Enabled: 1
  m_EditorHideFlags: 0
  m_Script: {fileID: 11500000, guid: 4b2363d5b162fe349a5b7164b7de7bb9, type: 3}
  m_Name: HintsFromAnka16
  m_EditorClassIdentifier: 
  hintContent:
  - "\u6700\u5F8C\u306E\u6C34\u7389\u3058\u3083\u3002\u3002"
  - "\u3057\u304B\u3057\u3001\u62FE\u3063\u305F\u3089\u300C\u30B8\u30F3\u300D\u304C\u9593\u9055\u3044\u306A\u304F\u8FFD\u3063\u3066\u304F\u308B\u306E\u3058\u3083\u3002\u3002"
  - "\u62FE\u3063\u305F\u3089\u3001\u5168\u529B\u3067\u8D70\u308A\u3060\u3059\u306E\u3058\u3083\u3002\u3002"
