%YAML 1.1
%TAG !u! tag:unity3d.com,2011:
--- !u!114 &11400000
MonoBehaviour:
  m_ObjectHideFlags: 0
  m_CorrespondingSourceObject: {fileID: 0}
  m_PrefabInstance: {fileID: 0}
  m_PrefabAsset: {fileID: 0}
  m_GameObject: {fileID: 0}
  m_Enabled: 1
  m_EditorHideFlags: 0
  m_Script: {fileID: 11500000, guid: 4b2363d5b162fe349a5b7164b7de7bb9, type: 3}
  m_Name: HintsFromAnka10_2
  m_EditorClassIdentifier: 
  hintContent:
  - "\u8056\u6C34\u3092\u62FE\u3063\u305F\u305B\u3044\u3067\u3001\u3059\u3054\u3044\u8FEB\u529B\u3058\u3083\u306A\u3002\u3002 "
  - "\u30C7\u30AB\u3044\u77F3\u304C\u3082\u3057\u304B\u3057\u305F\u3089\u3002\u3002 "
